NY NOAA Weather Dashboard
…
data("ny_noaa")

weather_df = ny_noaa |>
  mutate(
    tmax = as.numeric(tmax) / 10, 
    tmin = as.numeric(tmin) / 10,
    prcp = as.numeric(prcp) / 10, 
    year = as.numeric(format(date, "%Y")),
    month = as.numeric(format(date, "%m"))
  ) |>
  drop_na(tmax, tmin, prcp)

weather_df

## # A tibble: 1,417,635 × 9
##    id          date        prcp  snow  snwd  tmax  tmin  year month
##    <chr>       <date>     <dbl> <int> <int> <dbl> <dbl> <dbl> <dbl>
##  1 USC00300023 1981-01-03   0       0     0 -12.2 -20.6  1981     1
##  2 USC00300023 1981-01-05   0       0     0  -5.6 -17.8  1981     1
##  3 USC00300023 1981-01-12   0       0     0 -12.2 -30.6  1981     1
##  4 USC00300023 1981-01-13   0       0     0  -6.7 -28.9  1981     1
##  5 USC00300023 1981-01-15   0       0     0  -5   -10.6  1981     1
##  6 USC00300023 1981-01-17   0       0     0  -1.1 -15    1981     1
##  7 USC00300023 1981-01-20   0       0     0   6.1  -6.7  1981     1
##  8 USC00300023 1981-01-21   0       0     0   1.7 -10.6  1981     1
##  9 USC00300023 1981-01-22   0       0     0   0.6  -5    1981     1
## 10 USC00300023 1981-01-23  11.7   127    76   2.2  -4.4  1981     1
## # ℹ 1,417,625 more rows
…
